{
    "siteName": "Fabien Sailliet",
    "description": "I'm a French developer, always looking for new things to learn. I made this website so you can discover more about me. Please wipe your feet and come in to start the visit."
}