[
    {
        "name": "Embedded Linux Software Developer",
        "location": "SharpTech, Yenne, France (Full-remote)",
        "period": {
            "start": "2022-11"
        },
        "description": "Development of a monolithic C# application in an embedded Linux system that communicates with various devices using a wide variety of protocols (HTTP, I²C, RS-232, modbus, …) and its web user interface.",
        "tags": {
            "Types": ["Work"],
            "Languages": ["C#", "TypeScript"],
            "Others": ["React"]
        }
    },
    {
        "name": "Embedded Linux Software Developer",
        "location": "Carbon Bee, Valence, France",
        "period": {
            "start": "2020-09",
            "end": "2022-10",
            "duration": "2 years"
        },
        "description": "Development of multiple softwares in Python in a micro services architecture and some one-time missions such as an Android and iOS application using Flutter and the Google Maps library and an embedded project using Arduino on an ESP32.",
        "logoName": "carbon-bee.png",
        "tags": {
            "Types": ["Work"],
            "Languages": ["Python", "Dart", "C++"],
            "Others": ["MQTT", "Flutter", "Arduino"]
        }
    },
    {
        "name": "Trainee",
        "location": "Carbon Bee, Valence, France",
        "period": {
            "start": "2020-06",
            "end": "2020-08",
            "duration": "3 months"
        },
        "description": "End of licence professionnelle internship: development of an embedded display in Python using a custom graphical library.",
        "logoName": "carbon-bee.png",
        "tags": {
            "Types": ["Education", "Work"],
            "Languages": ["Python"],
            "Others": ["MQTT"]
        }
    },
    {
        "name": "Licence professionnelle CASIR",
        "location": "IUT Valence, France",
        "period": {
            "start": "2019-09",
            "end": "2020-08",
            "duration": "1 year"
        },
        "description": "Codage d'Applications et de Systèmes Informatiques Répartis: third year in Computing, taken at Cork Institute of Technology, in Ireland.",
        "logoName": "iut-valence.jpg",
        "tags": {
            "Types": ["Education"],
            "Languages": ["JavaScript", "Java", "C"],
            "Libraries": ["SQLite", "Express", "JDBC"],
            "Others": ["EJS", "Node.js", "Database", "MySQL"]
        }
    },
    {
        "name": "Developer",
        "location": "Carbon Bee, Valence, France",
        "period": {
            "start": "2019-07",
            "end": "2019-08",
            "duration": "2 months"
        },
        "description": "Development of internal tools in Python: used the console user interface library Urwid and did some web development with the frameworks Flask and Bootstrap.",
        "logoName": "carbon-bee.png",
        "tags": {
            "Types": ["Work"],
            "Languages": ["Python", "JavaScript"],
            "Libraries": ["Flask", "Bootstrap", "Urwid"]
        }
    },
    {
        "name": "Trainee",
        "location": "Carbon Bee, Valence, France",
        "period": {
            "start": "2019-04",
            "end": "2019-06",
            "duration": "3 months"
        },
        "description": "End of DUT Informatique internship: development of a data download application in C# with the Windows Form library.",
        "logoName": "carbon-bee.png",
        "tags": {
            "Types": ["Education", "Work"],
            "Languages": ["C#"],
            "Libraries": ["Windows Forms", "AeroWizard"]
        }
    },
    {
        "name": "Administrative Agent",
        "location": "Secrétariat du Conseil Départemental de l'Isère de l'Ordre des Médecins, Grenoble, France",
        "period": {
            "start": "2018-06",
            "end": "2018-08",
            "duration": "2 months"
        },
        "description": "Phone calls, data input in Excel and in an internal tool.",
        "tags": {
            "Types": ["Work"]
        }
    },
    {
        "name": "DUT Informatique",
        "location": "IUT Valence, France",
        "period": {
            "start": "2017-09",
            "end": "2019-06",
            "duration": "2 years"
        },
        "description": "Two-Year University Diploma in Computing.",
        "logoName": "iut-valence.jpg",
        "tags": {
            "Types": ["Education"],
            "Languages": ["C", "Java", "JavaScript", "Python", "PHP"],
            "Libraries": ["JavaFX", "jQuery", "Bootstrap", "Database", "MySQL", "PostgreSQL"]
        }
    }
]